<svg xmlns="http://www.w3.org/2000/svg" width="1120" height="552" viewBox="0 0 1120 552">
  <g id="bg-carrossel" transform="translate(-400 -1288)">
    <rect id="Retângulo_18" data-name="Retângulo 18" width="1009" height="400" transform="translate(511 1440)" fill="#f5f5f5"/>
    <g id="Retângulo_21" data-name="Retângulo 21" transform="translate(400 1288)" fill="none" stroke="#f5f5f5" stroke-width="6">
      <rect width="960" height="400" stroke="none"/>
      <rect x="3" y="3" width="954" height="394" fill="none"/>
    </g>
  </g>
</svg>
