<svg xmlns="http://www.w3.org/2000/svg" width="27.083" height="41.811" viewBox="0 0 27.083 41.811">
  <path id="seta-d" d="M4024-7423l19.856,16.678L4024-7389.644" transform="translate(-4019.773 7427.227)" fill="none" stroke="#fff" stroke-linecap="round" stroke-linejoin="round" stroke-width="6"/>
</svg>
